…
``` r
cv_df = 
  crossv_mc(child_data, 50) 

cv_df %>% pull(train) %>% .[[3]] %>% as_tibble
```

    ## # A tibble: 3,473 x 20
    ##    babysex bhead blength   bwt delwt fincome frace gaweeks malform menarche
    ##    <fct>   <int>   <int> <int> <int>   <int> <fct>   <dbl> <fct>      <int>
    ##  1 2          34      51  3629   177      35 1        39.9 0             13
    ##  2 1          34      48  3062   156      65 2        25.9 0             14
    ##  3 1          34      52  3062   157      55 1        40   0             14
    ##  4 2          34      52  3374   156       5 1        41.6 0             13
    ##  5 1          33      52  3374   129      55 1        40.7 0             12
    ##  6 2          33      49  2778   140       5 1        37.4 0             12
    ##  7 1          33      50  3459   169      75 2        40.7 0             12
    ##  8 2          33      49  2551   120      75 2        38.1 0             11
    ##  9 1          35      56  3232   147      55 1        42.1 0             13
    ## 10 2          36      52  3629   154      65 1        40.3 0             11
    ## # … with 3,463 more rows, and 10 more variables: mheight <int>,
    ## #   momage <int>, mrace <fct>, parity <int>, pnumlbw <int>, pnumsga <int>,
    ## #   ppbmi <dbl>, ppwt <int>, smoken <dbl>, wtgain <int>
…
